{
  "project_info": {
    "project_number": "240662964271",
    "project_id": "hm7-charter"
  },
  "client": [
    {
      "client_info": {
        "mobilesdk_app_id": "1:240662964271:android:bfc4aad41e383d3d",
        "android_client_info": {
          "package_name": "net.gente21.hm7charterweb"
        }
      },
      "oauth_client": [
        {
          "client_id": "240662964271-iqqurjcq99ehqlm4arriislh8pagkak3.apps.googleusercontent.com",
          "client_type": 3
        }
      ],
      "api_key": [
        {
          "current_key": "AIzaSyAKaQJqmvhK6YCcaMFMWUf9pPQGu1xbrX4"
        }
      ],
      "services": {
        "analytics_service": {
          "status": 2,
          "analytics_property": {
            "tracking_id": "UA-107386790-1"
          }
        },
        "appinvite_service": {
          "status": 1,
          "other_platform_oauth_client": []
        },
        "ads_service": {
          "status": 1
        }
      }
    }
  ],
  "configuration_version": "1"
}